Assignment5.5/verilog/flightController1/backup/log.log
sender to send int          0
sender to send int          0
data =   0
int receiver on state 0, int_avail = 0, data =   0, oint=           0, bytes = 0
data =   0
int receiver on state 0, int_avail = 0, data =   0, oint=           0, bytes = 0
sender to send int 2863311530
sender is sending 170
data =   2
data =  10
data =  42
data = 170
sending 170
getting 1 170
int receiver on state 2, int_avail = 0, data = 170, oint=         170, bytes = 1
sender is sending 170
data =   0
data =   2
data =  10
data =  42
data = 170
sending 170
receiver latching 170
getting 2 170
int receiver on state 2, int_avail = 0, data = 170, oint=       43690, bytes = 2
sender is sending 170
data =   0
data =   2
data =  10
data =  42
data = 170
sending 170
receiver latching 170
getting 3 170
int receiver on state 2, int_avail = 0, data = 170, oint=    11184810, bytes = 3
sender is sending 170
data =   0
data =   2
data =  10
data =  42
data = 170
sending 170
receiver latching 170
getting 4 170
int receiver on state 0, int_avail = 1, data = 170, oint= -1431655766, bytes = 0
sender to send int  870748928
sender is sending   0
data =   0
sending   0
int receiver on state 1, int_avail = 0, data =   0, oint=           0, bytes = 0
getting 1   0
int receiver on state 2, int_avail = 0, data =   0, oint=           0, bytes = 1
sender is sending 147
data =   1
data =   3
data =  19
data = 147
sending 147
receiver latching 147
getting 2 147
int receiver on state 2, int_avail = 0, data = 147, oint=       37632, bytes = 2
sender is sending 230
data =   0
data =   2
data =   6
data =  38
data = 102
data = 230
sending 230
receiver latching 230
getting 3 230
int receiver on state 2, int_avail = 0, data = 230, oint=    15110912, bytes = 3
sender is sending  51
data =   0
data =   1
data =   3
data =  19
data =  51
sending  51
receiver latching  51
getting 4  51
int receiver on state 0, int_avail = 1, data =  51, oint=   870748928, bytes = 0
sender to send int          0
sender is sending   0
data =   0
sending   0
int receiver on state 1, int_avail = 0, data =   0, oint=           0, bytes = 0
getting 1   0
int receiver on state 2, int_avail = 0, data =   0, oint=           0, bytes = 1
sender is sending   0
sending   0
receiver latching   0
getting 2   0
int receiver on state 2, int_avail = 0, data =   0, oint=           0, bytes = 2
sender is sending   0
sending   0
receiver latching   0
getting 3   0
int receiver on state 2, int_avail = 0, data =   0, oint=           0, bytes = 3
sender is sending   0
sending   0
receiver latching   0
getting 4   0
int receiver on state 0, int_avail = 1, data =   0, oint=           0, bytes = 0
sender is sending   0
sending   0
int receiver on state 1, int_avail = 0, data =   0, oint=           0, bytes = 0
getting 1   0
int receiver on state 2, int_avail = 0, data =   0, oint=           0, bytes = 1
sender is sending   0
sending   0
receiver latching   0
getting 2   0
int receiver on state 2, int_avail = 0, data =   0, oint=           0, bytes = 2
sender is sending   0
sending   0
receiver latching   0
getting 3   0
int receiver on state 2, int_avail = 0, data =   0, oint=           0, bytes = 3
sender is sending   0
sending   0
receiver latching   0
getting 4   0
int receiver on state 0, int_avail = 1, data =   0, oint=           0, bytes = 0
sender to send int 4294817024
sender is sending   0
sending   0
int receiver on state 1, int_avail = 0, data =   0, oint=           0, bytes = 0
getting 1   0
int receiver on state 2, int_avail = 0, data =   0, oint=           0, bytes = 1
sender is sending 181
data =   1
data =   5
data =  21
data =  53
data = 181
sending 181
receiver latching 181
getting 2 181
int receiver on state 2, int_avail = 0, data = 181, oint=       46336, bytes = 2
sender is sending 253
data =   0
data =   1
data =   5
data =  13
data =  29
data =  61
data = 125
data = 253
sending 253
receiver latching 253
getting 3 253
int receiver on state 2, int_avail = 0, data = 253, oint=    16626944, bytes = 3
sender is sending 255
data =   0
data =   1
data =   3
data =   7
data =  15
data =  31
data =  63
data = 127
data = 255
sending 255
receiver latching 255
getting 4 255
int receiver on state 0, int_avail = 1, data = 255, oint=     -150272, bytes = 0
sender to send int          0
sender is sending   0
data =   0
sending   0
int receiver on state 1, int_avail = 0, data =   0, oint=           0, bytes = 0
getting 1   0
int receiver on state 2, int_avail = 0, data =   0, oint=           0, bytes = 1
sender is sending   0
sending   0
receiver latching   0
getting 2   0
int receiver on state 2, int_avail = 0, data =   0, oint=           0, bytes = 2
sender is sending   0
sending   0
receiver latching   0
getting 3   0
int receiver on state 2, int_avail = 0, data =   0, oint=           0, bytes = 3
sender is sending   0
sending   0
receiver latching   0
getting 4   0
int receiver on state 0, int_avail = 1, data =   0, oint=           0, bytes = 0
sender is sending   0
sending   0
int receiver on state 1, int_avail = 0, data =   0, oint=           0, bytes = 0
getting 1   0
int receiver on state 2, int_avail = 0, data =   0, oint=           0, bytes = 1
sender is sending   0
sending   0
receiver latching   0
getting 2   0
int receiver on state 2, int_avail = 0, data =   0, oint=           0, bytes = 2
sender is sending   0
sending   0
receiver latching   0
getting 3   0
int receiver on state 2, int_avail = 0, data =   0, oint=           0, bytes = 3
sender is sending   0
sending   0
receiver latching   0
getting 4   0
int receiver on state 0, int_avail = 1, data =   0, oint=           0, bytes = 0
sum of pos =  870748928
height =    3932928
transformed height 1:     491616
transformed height 2:      69133
sum of velocities =     -150272
result =      81011
        -76        180
case 2
sender to send int        256
sender is sending   0
sender is sending   0
sending   0
int receiver on state 1, int_avail = 0, data =   0, oint=           0, bytes = 0
sending   0
getting 1   0
int receiver on state 2, int_avail = 0, data =   0, oint=           0, bytes = 1
getting 1   0
int receiver on state 2, int_avail = 0, data =   0, oint=           0, bytes = 1
sender is sending   0
sender is sending   1
data =   1
sending   0
receiver latching   0
sending   1
receiver latching   1
getting 2   0
int receiver on state 2, int_avail = 0, data =   0, oint=           0, bytes = 2
getting 2   1
int receiver on state 2, int_avail = 0, data =   1, oint=         256, bytes = 2
sender is sending   0
sender is sending   0
data =   0
sending   0
receiver latching   0
sending   0
receiver latching   0
getting 3   0
int receiver on state 2, int_avail = 0, data =   0, oint=           0, bytes = 3
getting 3   0
int receiver on state 2, int_avail = 0, data =   0, oint=         256, bytes = 3
sender is sending   0
sender is sending   0
sending   0
receiver latching   0
sending   0
receiver latching   0
getting 4   0
int receiver on state 0, int_avail = 1, data =   0, oint=           0, bytes = 0
getting 4   0
data received =         256
int receiver on state 0, int_avail = 1, data =   0, oint=         256, bytes = 0
sender to send int 2863311530
sender to send int          0
sender is sending 170
data =   2
data =  10
data =  42
data = 170
sending 170
int receiver on state 1, int_avail = 0, data = 170, oint=           0, bytes = 0
getting 1 170
int receiver on state 2, int_avail = 0, data = 170, oint=         170, bytes = 1
sender is sending 170
data =   0
data =   2
data =  10
data =  42
data = 170
sending 170
receiver latching 170
getting 2 170
int receiver on state 2, int_avail = 0, data = 170, oint=       43690, bytes = 2
sender is sending 170
data =   0
data =   2
data =  10
data =  42
data = 170
sending 170
receiver latching 170
getting 3 170
int receiver on state 2, int_avail = 0, data = 170, oint=    11184810, bytes = 3
sender is sending 170
data =   0
data =   2
data =  10
data =  42
data = 170
sending 170
receiver latching 170
getting 4 170
int receiver on state 0, int_avail = 1, data = 170, oint= -1431655766, bytes = 0
sender to send int  870748928
sender is sending   0
data =   0
sending   0
int receiver on state 1, int_avail = 0, data =   0, oint=           0, bytes = 0
getting 1   0
int receiver on state 2, int_avail = 0, data =   0, oint=           0, bytes = 1
sender is sending 147
data =   1
data =   3
data =  19
data = 147
sending 147
receiver latching 147
getting 2 147
int receiver on state 2, int_avail = 0, data = 147, oint=       37632, bytes = 2
sender is sending 230
data =   0
data =   2
data =   6
data =  38
data = 102
data = 230
sending 230
receiver latching 230
getting 3 230
int receiver on state 2, int_avail = 0, data = 230, oint=    15110912, bytes = 3
sender is sending  51
data =   0
data =   1
data =   3
data =  19
data =  51
sending  51
receiver latching  51
getting 4  51
int receiver on state 0, int_avail = 1, data =  51, oint=   870748928, bytes = 0
sender to send int          0
sender is sending   0
data =   0
sending   0
int receiver on state 1, int_avail = 0, data =   0, oint=           0, bytes = 0
getting 1   0
int receiver on state 2, int_avail = 0, data =   0, oint=           0, bytes = 1
sender is sending   0
sending   0
receiver latching   0
getting 2   0
int receiver on state 2, int_avail = 0, data =   0, oint=           0, bytes = 2
sender is sending   0
sending   0
receiver latching   0
getting 3   0
int receiver on state 2, int_avail = 0, data =   0, oint=           0, bytes = 3
sender is sending   0
sending   0
receiver latching   0
getting 4   0
int receiver on state 0, int_avail = 1, data =   0, oint=           0, bytes = 0
sender is sending   0
sending   0
int receiver on state 1, int_avail = 0, data =   0, oint=           0, bytes = 0
getting 1   0
int receiver on state 2, int_avail = 0, data =   0, oint=           0, bytes = 1
sender is sending   0
sending   0
receiver latching   0
getting 2   0
int receiver on state 2, int_avail = 0, data =   0, oint=           0, bytes = 2
sender is sending   0
sending   0
receiver latching   0
getting 3   0
int receiver on state 2, int_avail = 0, data =   0, oint=           0, bytes = 3
sender is sending   0
sending   0
receiver latching   0
getting 4   0
int receiver on state 0, int_avail = 1, data =   0, oint=           0, bytes = 0
sender to send int 4294817024
sender is sending   0
sending   0
int receiver on state 1, int_avail = 0, data =   0, oint=           0, bytes = 0
getting 1   0
int receiver on state 2, int_avail = 0, data =   0, oint=           0, bytes = 1
sender is sending 181
data =   1
data =   5
data =  21
data =  53
data = 181
sending 181
receiver latching 181
getting 2 181
int receiver on state 2, int_avail = 0, data = 181, oint=       46336, bytes = 2
sender is sending 253
data =   0
data =   1
data =   5
data =  13
data =  29
data =  61
data = 125
data = 253
sending 253
receiver latching 253
getting 3 253
int receiver on state 2, int_avail = 0, data = 253, oint=    16626944, bytes = 3
sender is sending 255
data =   0
data =   1
data =   3
data =   7
data =  15
data =  31
data =  63
data = 127
data = 255
sending 255
receiver latching 255
getting 4 255
int receiver on state 0, int_avail = 1, data = 255, oint=     -150272, bytes = 0
sender to send int          0
sender is sending   0
data =   0
sending   0
int receiver on state 1, int_avail = 0, data =   0, oint=           0, bytes = 0
getting 1   0
int receiver on state 2, int_avail = 0, data =   0, oint=           0, bytes = 1
sender is sending   0
sending   0
receiver latching   0
getting 2   0
int receiver on state 2, int_avail = 0, data =   0, oint=           0, bytes = 2
sender is sending   0
sending   0
receiver latching   0
getting 3   0
int receiver on state 2, int_avail = 0, data =   0, oint=           0, bytes = 3
sender is sending   0
sending   0
receiver latching   0
getting 4   0
int receiver on state 0, int_avail = 1, data =   0, oint=           0, bytes = 0
sender is sending   0
sending   0
int receiver on state 1, int_avail = 0, data =   0, oint=           0, bytes = 0
getting 1   0
int receiver on state 2, int_avail = 0, data =   0, oint=           0, bytes = 1
sender is sending   0
sending   0
receiver latching   0
getting 2   0
int receiver on state 2, int_avail = 0, data =   0, oint=           0, bytes = 2
sender is sending   0
sending   0
receiver latching   0
getting 3   0
int receiver on state 2, int_avail = 0, data =   0, oint=           0, bytes = 3
sender is sending   0
sending   0
receiver latching   0
getting 4   0
int receiver on state 0, int_avail = 1, data =   0, oint=           0, bytes = 0
sum of pos =  870748928
height =    3932928
transformed height 1:     491616
transformed height 2:      69133
sum of velocities =     -150272
result =      81011
        -76        180
case 2
sender to send int        256
sender is sending   0
sender is sending   0
sending   0
int receiver on state 1, int_avail = 0, data =   0, oint=           0, bytes = 0
sending   0
getting 1   0
int receiver on state 2, int_avail = 0, data =   0, oint=           0, bytes = 1
int receiver on state 1, int_avail = 0, data =   0, oint=           0, bytes = 0
getting 1   0
int receiver on state 2, int_avail = 0, data =   0, oint=           0, bytes = 1
sender is sending   0
sender is sending   1
data =   1
sending   0
receiver latching   0
sending   1
receiver latching   1
getting 2   0
int receiver on state 2, int_avail = 0, data =   0, oint=           0, bytes = 2
getting 2   1
int receiver on state 2, int_avail = 0, data =   1, oint=         256, bytes = 2
sender is sending   0
sender is sending   0
data =   0
sending   0
receiver latching   0
sending   0
receiver latching   0
getting 3   0
int receiver on state 2, int_avail = 0, data =   0, oint=           0, bytes = 3
getting 3   0
int receiver on state 2, int_avail = 0, data =   0, oint=         256, bytes = 3
sender is sending   0
sender is sending   0
sending   0
receiver latching   0
sending   0
receiver latching   0
getting 4   0
int receiver on state 0, int_avail = 1, data =   0, oint=           0, bytes = 0
getting 4   0
data received =         256
int receiver on state 0, int_avail = 1, data =   0, oint=         256, bytes = 0
sender to send int 2863311530
sender to send int          0
sender is sending 170
data =   2
data =  10
data =  42
data = 170
sending 170
int receiver on state 1, int_avail = 0, data = 170, oint=           0, bytes = 0
getting 1 170
int receiver on state 2, int_avail = 0, data = 170, oint=         170, bytes = 1
sender is sending 170
data =   0
data =   2
data =  10
data =  42
data = 170
sending 170
receiver latching 170
getting 2 170
int receiver on state 2, int_avail = 0, data = 170, oint=       43690, bytes = 2
sender is sending 170
data =   0
data =   2
data =  10
data =  42
data = 170
sending 170
receiver latching 170
getting 3 170
int receiver on state 2, int_avail = 0, data = 170, oint=    11184810, bytes = 3
sender is sending 170
data =   0
data =   2
data =  10
data =  42
data = 170
sending 170
receiver latching 170
getting 4 170
int receiver on state 0, int_avail = 1, data = 170, oint= -1431655766, bytes = 0
sender to send int  870748928
sender is sending   0
data =   0
sending   0
int receiver on state 1, int_avail = 0, data =   0, oint=           0, bytes = 0
getting 1   0
int receiver on state 2, int_avail = 0, data =   0, oint=           0, bytes = 1
sender is sending 147
data =   1
data =   3
data =  19
data = 147
sending 147
receiver latching 147
getting 2 147
int receiver on state 2, int_avail = 0, data = 147, oint=       37632, bytes = 2
sender is sending 230
data =   0
data =   2
data =   6
data =  38
data = 102
data = 230
sending 230
receiver latching 230
getting 3 230
int receiver on state 2, int_avail = 0, data = 230, oint=    15110912, bytes = 3
sender is sending  51
data =   0
data =   1
data =   3
data =  19
data =  51
sending  51
receiver latching  51
getting 4  51
int receiver on state 0, int_avail = 1, data =  51, oint=   870748928, bytes = 0
sender to send int          0
sender is sending   0
data =   0
sending   0
int receiver on state 1, int_avail = 0, data =   0, oint=           0, bytes = 0
getting 1   0
int receiver on state 2, int_avail = 0, data =   0, oint=           0, bytes = 1
sender is sending   0
sending   0
receiver latching   0
getting 2   0
int receiver on state 2, int_avail = 0, data =   0, oint=           0, bytes = 2
sender is sending   0
sending   0
receiver latching   0
getting 3   0
int receiver on state 2, int_avail = 0, data =   0, oint=           0, bytes = 3
sender is sending   0
sending   0
receiver latching   0
getting 4   0
int receiver on state 0, int_avail = 1, data =   0, oint=           0, bytes = 0
sender is sending   0
sending   0
int receiver on state 1, int_avail = 0, data =   0, oint=           0, bytes = 0
getting 1   0
int receiver on state 2, int_avail = 0, data =   0, oint=           0, bytes = 1
sender is sending   0
sending   0
receiver latching   0
getting 2   0
int receiver on state 2, int_avail = 0, data =   0, oint=           0, bytes = 2
sender is sending   0
sending   0
receiver latching   0
getting 3   0
int receiver on state 2, int_avail = 0, data =   0, oint=           0, bytes = 3
sender is sending   0
sending   0
receiver latching   0
getting 4   0
int receiver on state 0, int_avail = 1, data =   0, oint=           0, bytes = 0
sender to send int 4294817024
sender is sending   0
sending   0
int receiver on state 1, int_avail = 0, data =   0, oint=           0, bytes = 0
getting 1   0
int receiver on state 2, int_avail = 0, data =   0, oint=           0, bytes = 1
sender is sending 181
data =   1
data =   5
data =  21
data =  53
data = 181
sending 181
receiver latching 181
getting 2 181
int receiver on state 2, int_avail = 0, data = 181, oint=       46336, bytes = 2
sender is sending 253
data =   0
data =   1
data =   5
data =  13
data =  29
data =  61
data = 125
data = 253
sending 253
receiver latching 253
getting 3 253
int receiver on state 2, int_avail = 0, data = 253, oint=    16626944, bytes = 3
sender is sending 255
data =   0
data =   1
data =   3
data =   7
data =  15
data =  31
data =  63
data = 127
data = 255
sending 255
receiver latching 255
getting 4 255
int receiver on state 0, int_avail = 1, data = 255, oint=     -150272, bytes = 0
sender to send int          0
sender is sending   0
data =   0
sending   0
int receiver on state 1, int_avail = 0, data =   0, oint=           0, bytes = 0
getting 1   0
int receiver on state 2, int_avail = 0, data =   0, oint=           0, bytes = 1
sender is sending   0
sending   0
receiver latching   0
getting 2   0
int receiver on state 2, int_avail = 0, data =   0, oint=           0, bytes = 2
sender is sending   0
sending   0
receiver latching   0
getting 3   0
int receiver on state 2, int_avail = 0, data =   0, oint=           0, bytes = 3
sender is sending   0
sending   0
receiver latching   0
getting 4   0
int receiver on state 0, int_avail = 1, data =   0, oint=           0, bytes = 0
sender is sending   0
sending   0
int receiver on state 1, int_avail = 0, data =   0, oint=           0, bytes = 0
getting 1   0
int receiver on state 2, int_avail = 0, data =   0, oint=           0, bytes = 1
sender is sending   0
sending   0
receiver latching   0
getting 2   0
int receiver on state 2, int_avail = 0, data =   0, oint=           0, bytes = 2
sender is sending   0
sending   0
receiver latching   0
getting 3   0
int receiver on state 2, int_avail = 0, data =   0, oint=           0, bytes = 3
sender is sending   0
sending   0
receiver latching   0
getting 4   0
int receiver on state 0, int_avail = 1, data =   0, oint=           0, bytes = 0
sum of pos =  870748928
height =    3932928
transformed height 1:     491616
transformed height 2:      69133
sum of velocities =     -150272
result =      81011
        -76        180
case 2
sender to send int        256
sender is sending   0
sender is sending   0
sending   0
int receiver on state 1, int_avail = 0, data =   0, oint=           0, bytes = 0
sending   0
getting 1   0
int receiver on state 2, int_avail = 0, data =   0, oint=           0, bytes = 1
int receiver on state 1, int_avail = 0, data =   0, oint=           0, bytes = 0
getting 1   0
int receiver on state 2, int_avail = 0, data =   0, oint=           0, bytes = 1
sender is sending   0
sender is sending   1
data =   1
sending   0
receiver latching   0
sending   1
receiver latching   1
getting 2   0
int receiver on state 2, int_avail = 0, data =   0, oint=           0, bytes = 2
getting 2   1
int receiver on state 2, int_avail = 0, data =   1, oint=         256, bytes = 2
sender is sending   0
sender is sending   0
data =   0
sending   0
receiver latching   0
sending   0
receiver latching   0
getting 3   0
int receiver on state 2, int_avail = 0, data =   0, oint=           0, bytes = 3
getting 3   0
int receiver on state 2, int_avail = 0, data =   0, oint=         256, bytes = 3
sender is sending   0
sender is sending   0
sending   0
receiver latching   0
sending   0
receiver latching   0
getting 4   0
int receiver on state 0, int_avail = 1, data =   0, oint=           0, bytes = 0
getting 4   0
data received =         256
int receiver on state 0, int_avail = 1, data =   0, oint=         256, bytes = 0
sender to send int 2863311530
sender to send int          0
sender is sending 170
data =   2
data =  10
data =  42
data = 170
sending 170
int receiver on state 1, int_avail = 0, data = 170, oint=           0, bytes = 0
getting 1 170
int receiver on state 2, int_avail = 0, data = 170, oint=         170, bytes = 1
sender is sending 170
data =   0
data =   2
data =  10
data =  42
data = 170
sending 170
receiver latching 170
getting 2 170
int receiver on state 2, int_avail = 0, data = 170, oint=       43690, bytes = 2
sender is sending 170
data =   0
data =   2
data =  10
data =  42
data = 170
sending 170
receiver latching 170
getting 3 170
int receiver on state 2, int_avail = 0, data = 170, oint=    11184810, bytes = 3
sender is sending 170
data =   0
data =   2
data =  10
data =  42
data = 170
sending 170
receiver latching 170
getting 4 170
int receiver on state 0, int_avail = 1, data = 170, oint= -1431655766, bytes = 0
sender to send int  870748928
sender is sending   0
data =   0
sending   0
int receiver on state 1, int_avail = 0, data =   0, oint=           0, bytes = 0
getting 1   0
int receiver on state 2, int_avail = 0, data =   0, oint=           0, bytes = 1
sender is sending 147
data =   1
data =   3
data =  19
data = 147
sending 147
receiver latching 147
getting 2 147
int receiver on state 2, int_avail = 0, data = 147, oint=       37632, bytes = 2
sender is sending 230
data =   0
data =   2
data =   6
data =  38
data = 102
data = 230
sending 230
receiver latching 230
getting 3 230
int receiver on state 2, int_avail = 0, data = 230, oint=    15110912, bytes = 3
sender is sending  51
data =   0
data =   1
data =   3
data =  19
data =  51
sending  51
receiver latching  51
getting 4  51
int receiver on state 0, int_avail = 1, data =  51, oint=   870748928, bytes = 0
sender to send int          0
sender is sending   0
data =   0
sending   0
int receiver on state 1, int_avail = 0, data =   0, oint=           0, bytes = 0
getting 1   0
int receiver on state 2, int_avail = 0, data =   0, oint=           0, bytes = 1
sender is sending   0
sending   0
receiver latching   0
getting 2   0
int receiver on state 2, int_avail = 0, data =   0, oint=           0, bytes = 2
sender is sending   0
- tb_flight_controller.v:19: Verilog $finish
- S i m u l a t i o n   R e p o r t: Verilator 5.034 2025-02-24
- Verilator: $finish at 9ms; walltime 0.225 s; speed 42.458 ms/s
- Verilator: cpu 0.212 s on 1 threads; alloced 89 MB
